{"firstPage":1,"hasNextPage":true,"hasPreviousPage":false,"lastPage":false,"navigatePages":8,"navigatepageNums":[1,2,3],"nextPage":2,"pageNum":1,"pageSize":25,"prePage":0,"result":1,"size":25,"total":61,"totalHasReadNum":57,"totalNum":61,"totalUnReadNum":4,"userInboxList":[{"content":"\r\n【★温馨提示★】尊敬的用户您好，本公司招商银行入款账号【★苏泽宝★】因业务调整已经停止使用了哦，还请各位会员入款时注意本公司最新的入款账号，如有疑问还请第一时间联系本公司7*24小时在线客服哦。以免将款项存入公司已经停用的入款账号内造成不必要的损失及误解，希望广大会员玩家相互转告一下，感谢广大会员对本公司的支持与厚爱，600万团队敬上！！！","createTime":1502355836000,"hasRead":false,"id":117916},{"content":"\r\n【★温馨提示★】尊敬的用户您好，本公司招商银行入款账号【★苏泽宝★】因业务调整已经停止使用了哦，还请各位会员入款时注意本公司最新的入款账号，如有疑问还请第一时间联系本公司7*24小时在线客服哦。以免将款项存入公司已经停用的入款账号内造成不必要的损失及误解，希望广大会员玩家相互转告一下，感谢广大会员对本公司的支持与厚爱，600万团队敬上！！！","createTime":1502355777000,"hasRead":false,"id":117914},{"content":"\r\n【★温馨提示★】尊敬的用户您好，本公司招商银行入款账号【★苏泽宝★】因业务调整已经停止使用了哦，还请各位会员入款时注意本公司最新的入款账号，如有疑问还请第一时间联系本公司7*24小时在线客服哦。以免将款项存入公司已经停用的入款账号内造成不必要的损失及误解，希望广大会员玩家相互转告一下，感谢广大会员对本公司的支持与厚爱，600万团队敬上！！！","createTime":1502355731000,"hasRead":false,"id":117913},{"content":"您好，您的提款申请已通过，请到您绑定的银行账户查收。","createTime":1502344805000,"hasRead":false,"id":117765},{"content":"温馨提示：尊敬的600万会员玩家请留意：微信入款账号：【KK64865与YH49K000】已停止使用！请玩家入款时务必查看一下最新的微信入款账号，以免将款项存入公司已经停用的微信入款账号内，从而延误了您的入款时间！~！ 600万团队敬上！！！\t","createTime":1500453341000,"hasRead":true,"id":91112},{"content":"温馨提示：尊敬的600万会员玩家请留意：微信入款账号：【KK64865与YH49K000】已停止使用！请玩家入款时务必查看一下最新的微信入款账号，以免将款项存入公司已经停用的微信入款账号内，从而延误了您的入款时间！~！ 600万团队敬上！！！\t","createTime":1500453250000,"hasRead":true,"id":91110},{"content":"温馨提示：尊敬的600万会员玩家请留意：微信入款账号：【KK64865】；正在进行维护！请玩家入款时务必查看一下最新的微信入款账号，以免将款项存入公司已经停用的微信入款账号内，从而延误了您的入款时间！~！ 600万团队敬上！！！\t","createTime":1500439604000,"hasRead":true,"id":90846},{"content":"温馨提示：尊敬的600万会员玩家请留意：微信入款账号：【KK64865】；正在进行维护！请玩家入款时务必查看一下最新的微信入款账号，以免将款项存入公司已经停用的微信入款账号内，从而延误了您的入款时间！~！ 600万团队敬上！！！\t","createTime":1500439315000,"hasRead":true,"id":90841},{"content":"温馨提示：尊敬的600万会员玩家请留意：微信入款账号：【KK64865】；正在进行维护！请玩家入款时务必查看一下最新的微信入款账号，以免将款项存入公司已经停用的微信入款账号内，从而延误了您的入款时间！~！ 600万团队敬上！！！\t","createTime":1500439190000,"hasRead":true,"id":90837},{"content":"温馨提示：尊敬的600万会员玩家请留意：为保障玩家的微信入款顺畅，我们公司的微信入款账号进行了重大变动！请玩家入款时查看公司有效的入款账号后再进行存款操作，以免将款项存入公司已经停用的微信入款账号内，从而延误了您的入款时间！~！ 600万团队敬上！！！\t","createTime":1500439010000,"hasRead":true,"id":90832},{"content":"温馨提示：尊敬的600万会员玩家请留意，600万将于7月15号23:30-7月16号凌晨1:00点进行系统升级。升级期间可能会出现短时间的弹出升级提示，请各位玩家注意，600万团队敬上！","createTime":1500132666000,"hasRead":true,"id":87094},{"content":"温馨提示：尊敬的600万会员玩家请留意：公司的微信入款账号：yh49k8888，已停用！请玩家入款时查看公司有效的入款账号后再进行存款操作，以免将款项存入公司已经停用的微信入款账号内，从而延误了您的入款时间！~！ 600万团队敬上！！！\t","createTime":1499949809000,"hasRead":true,"id":84632},{"content":"温馨提示：尊敬的600万会员玩家请留意：公司的微信入款账号：yh49k8888，已停用！请玩家入款时查看公司有效的入款账号后再进行存款操作，以免将款项存入公司已经停用的微信入款账号内，从而延误了您的入款时间！~！\r\n600万团队敬上！！！","createTime":1499916563000,"hasRead":true,"id":84206},{"content":"温馨提示：尊敬的广大600万会员玩家请注意！公司已经更换了全新的入款账号，公司银行账号不定期更换，请每次存款前，务必先到【银行汇款】入款方式查看账号！以免将款项存入公司已经停用的入款账号内，从而造成不必要的损失及误解~！~\r\n600万团队敬上！","createTime":1499830838000,"hasRead":true,"id":83283},{"content":"温馨提示：尊敬的广大600万会员玩家请注意！公司已经更换了全新的入款账号，公司银行账号不定期更换，请每次存款前，务必先到【银行汇款】入款方式查看账号！以免将款项存入公司已经停用的入款账号内，从而造成不必要的损失及误解~！~\r\n600万团队敬上！","createTime":1499830789000,"hasRead":true,"id":83281},{"content":"温馨提示：尊敬的广大600万会员玩家请注意！公司已经更换了全新的入款账号，公司银行账号不定期更换，请每次存款前，务必先到【银行汇款】入款方式查看账号！以免将款项存入公司已经停用的入款账号内，从而造成不必要的损失及误解~！~\r\n600万团队敬上！","createTime":1499830740000,"hasRead":true,"id":83280},{"content":"温馨提示：尊敬的600万会员玩家请留意：公司的工商银行入款账号：甄蕾，已停用！请玩家暂时使用【在线支付//微信扫码/微信转账方式】进行入款，望广大会员玩家互相转告通知，感谢您的配合！600万团队敬上！！！","createTime":1499826480000,"hasRead":true,"id":83237},{"content":"温馨提示：尊敬的600万会员玩家请留意：公司的工商银行入款账号：甄蕾，已停用！请玩家暂时使用【在线支付//微信扫码/微信转账方式】进行入款，望广大会员玩家互相转告通知，感谢您的配合！600万团队敬上！！！","createTime":1499826444000,"hasRead":true,"id":83236},{"content":"温馨提示：尊敬的600万会员玩家请留意：公司的工商银行入款账号：甄蕾，已停用！请玩家暂时使用【在线支付//微信扫码/微信转账方式】进行入款，望广大会员玩家互相转告通知，感谢您的配合！600万团队敬上！！！","createTime":1499826394000,"hasRead":true,"id":83235},{"content":"温馨提示：尊敬的600万会员玩家请留意：公司的支付宝二维码入款账号：伍环香，已停用！请玩家暂时使用其【银行卡转账/在线支付/微信转账方式】进行入款，望广大会员玩家互相转告通知，感谢您的配合！600万团队敬上！！！","createTime":1499031878000,"hasRead":true,"id":73921},{"content":"温馨提示：尊敬的600万会员玩家请留意：公司的支付宝二维码入款账号：伍环香，已停用！请玩家暂时使用其【银行卡转账/在线支付/微信转账方式】进行入款，望广大会员玩家互相转告通知，感谢您的配合！600万团队敬上！！！","createTime":1499031746000,"hasRead":true,"id":73920},{"content":"您好，您的提款申请因\"银行信息有误，请更换银行卡\"原因导致审核未通过，如有疑问请及时联系我们。","createTime":1498888024000,"hasRead":true,"id":71768},{"content":"您好，您的提款申请因\"流水不足\"原因导致审核未通过，如有疑问请及时联系我们。","createTime":1498880964000,"hasRead":true,"id":71675},{"content":"您好，您的提款申请因\"流水不足\"原因导致审核未通过，如有疑问请及时联系我们。","createTime":1498880832000,"hasRead":true,"id":71674},{"content":"您好，您的提款申请因\"流水不足\"原因导致审核未通过，如有疑问请及时联系我们。","createTime":1498880233000,"hasRead":true,"id":71667}]}